{
  "kind": "collectionType",
  "collectionName": "process_levels",
  "info": {
    "singularName": "process-level",
    "pluralName": "process-levels",
    "displayName": "ProcessLevel",
    "description": ""
  },
  "options": {
    "draftAndPublish": true
  },
  "pluginOptions": {},
  "attributes": {
    "name": {
      "type": "string",
      "required": true
    },
    "subProcesses": {
      "type": "relation",
      "relation": "oneToMany",
      "target": "api::sub-process.sub-process",
      "mappedBy": "processLevel"
    },
    "fileUploadRequired": {
      "type": "boolean",
      "default": false,
      "required": false
    },
    "products": {
      "type": "relation",
      "relation": "manyToMany",
      "target": "api::product.product",
      "inversedBy": "processLevels"
    },
    "label": {
      "type": "string"
    }
  }
}
