{
  "kind": "collectionType",
  "collectionName": "super_types",
  "info": {
    "singularName": "super-type",
    "pluralName": "super-types",
    "displayName": "SuperType",
    "description": ""
  },
  "options": {
    "draftAndPublish": false
  },
  "pluginOptions": {},
  "attributes": {
    "name": {
      "type": "string",
      "unique": true,
      "required": true
    },
    "coverImage": {
      "allowedTypes": [
        "images"
      ],
      "type": "media",
      "multiple": false,
      "required": true
    },
    "types": {
      "type": "relation",
      "relation": "oneToMany",
      "target": "api::type.type",
      "mappedBy": "superType"
    }
  }
}
