{
  "kind": "collectionType",
  "collectionName": "products",
  "info": {
    "singularName": "product",
    "pluralName": "products",
    "displayName": "Product",
    "description": ""
  },
  "options": {
    "draftAndPublish": true
  },
  "pluginOptions": {},
  "attributes": {
    "sku": {
      "type": "uid",
      "required": true
    },
    "name": {
      "type": "string"
    },
    "summary": {
      "type": "text",
      "required": true
    },
    "benefits": {
      "type": "richtext",
      "required": true
    },
    "price": {
      "type": "decimal",
      "required": true,
      "min": 5
    },
    "averageHandlineTime": {
      "type": "decimal"
    },
    "manualHandlingTime": {
      "type": "decimal",
      "required": false
    },
    "categories": {
      "type": "relation",
      "relation": "manyToMany",
      "target": "api::category.category",
      "inversedBy": "products"
    },
    "complexity": {
      "type": "string",
      "required": true
    },
    "timeline": {
      "type": "string",
      "required": true
    },
    "industryUse": {
      "type": "string",
      "required": true
    },
    "coverImage": {
      "type": "media",
      "multiple": false,
      "required": false,
      "allowedTypes": [
        "images"
      ]
    },
    "processLevels": {
      "type": "relation",
      "relation": "manyToMany",
      "target": "api::process-level.process-level",
      "mappedBy": "products"
    }
  }
}
